<?xml version="1.0" encoding="UTF-8" standalone="no"?>
<!DOCTYPE svg PUBLIC "-//W3C//DTD SVG 1.1//EN"
 "http://www.w3.org/Graphics/SVG/1.1/DTD/svg11.dtd">
<!-- Generated by graphviz version 2.47.3 (20210619.1520)
 -->
<!-- Title: dependencies Pages: 1 -->
<svg width="642pt" height="174pt"
 viewBox="0.00 0.00 642.00 173.80" xmlns="http://www.w3.org/2000/svg" xmlns:xlink="http://www.w3.org/1999/xlink">
<g id="graph0" class="graph" transform="scale(1 1) rotate(0) translate(4 169.8)">
<title>dependencies</title>
<polygon fill="white" stroke="transparent" points="-4,4 -4,-169.8 638,-169.8 638,4 -4,4"/>
<text text-anchor="middle" x="317" y="-8.2" font-family="sans-serif" font-size="14.00">dependencies</text>
<g id="clust1" class="cluster">
<title>cluster_AppModule</title>
<polygon fill="none" stroke="black" stroke-dasharray="1,5" points="8,-32.8 8,-157.8 626,-157.8 626,-32.8 8,-32.8"/>
</g>
<g id="clust6" class="cluster">
<title>cluster_AppModule_providers</title>
<polygon fill="none" stroke="black" points="488,-40.8 488,-92.8 618,-92.8 618,-40.8 488,-40.8"/>
</g>
<g id="clust3" class="cluster">
<title>cluster_AppModule_imports</title>
<polygon fill="none" stroke="black" points="16,-40.8 16,-92.8 480,-92.8 480,-40.8 16,-40.8"/>
</g>
<!-- BooksModule -->
<g id="node1" class="node">
<title>BooksModule</title>
<polygon fill="#8dd3c7" stroke="black" points="471.83,-84.8 468.83,-88.8 447.83,-88.8 444.83,-84.8 376.17,-84.8 376.17,-48.8 471.83,-48.8 471.83,-84.8"/>
<text text-anchor="middle" x="424" y="-62.6" font-family="Times,serif" font-size="14.00">BooksModule</text>
</g>
<!-- AppModule -->
<g id="node5" class="node">
<title>AppModule</title>
<polygon fill="#8dd3c7" stroke="black" points="350.66,-149.8 347.66,-153.8 326.66,-153.8 323.66,-149.8 267.34,-149.8 267.34,-113.8 350.66,-113.8 350.66,-149.8"/>
<text text-anchor="middle" x="309" y="-127.6" font-family="Times,serif" font-size="14.00">AppModule</text>
</g>
<!-- BooksModule&#45;&gt;AppModule -->
<g id="edge1" class="edge">
<title>BooksModule&#45;&gt;AppModule</title>
<path fill="none" stroke="black" d="M424,-84.82C424,-102.17 424,-125.8 424,-125.8 424,-125.8 360.84,-125.8 360.84,-125.8"/>
<polygon fill="black" stroke="black" points="360.84,-122.3 350.84,-125.8 360.84,-129.3 360.84,-122.3"/>
</g>
<!-- EntriesModule -->
<g id="node2" class="node">
<title>EntriesModule</title>
<polygon fill="#8dd3c7" stroke="black" points="358.7,-84.8 355.7,-88.8 334.7,-88.8 331.7,-84.8 259.3,-84.8 259.3,-48.8 358.7,-48.8 358.7,-84.8"/>
<text text-anchor="middle" x="309" y="-62.6" font-family="Times,serif" font-size="14.00">EntriesModule</text>
</g>
<!-- EntriesModule&#45;&gt;AppModule -->
<g id="edge2" class="edge">
<title>EntriesModule&#45;&gt;AppModule</title>
<path fill="none" stroke="black" d="M309,-84.91C309,-84.91 309,-103.79 309,-103.79"/>
<polygon fill="black" stroke="black" points="305.5,-103.79 309,-113.79 312.5,-103.79 305.5,-103.79"/>
</g>
<!-- LoginModule -->
<g id="node3" class="node">
<title>LoginModule</title>
<polygon fill="#8dd3c7" stroke="black" points="241.49,-84.8 238.49,-88.8 217.49,-88.8 214.49,-84.8 148.51,-84.8 148.51,-48.8 241.49,-48.8 241.49,-84.8"/>
<text text-anchor="middle" x="195" y="-62.6" font-family="Times,serif" font-size="14.00">LoginModule</text>
</g>
<!-- LoginModule&#45;&gt;AppModule -->
<g id="edge3" class="edge">
<title>LoginModule&#45;&gt;AppModule</title>
<path fill="none" stroke="black" d="M195,-84.82C195,-102.17 195,-125.8 195,-125.8 195,-125.8 257.2,-125.8 257.2,-125.8"/>
<polygon fill="black" stroke="black" points="257.2,-129.3 267.2,-125.8 257.2,-122.3 257.2,-129.3"/>
</g>
<!-- RegisterModule -->
<g id="node4" class="node">
<title>RegisterModule</title>
<polygon fill="#8dd3c7" stroke="black" points="130.2,-84.8 127.2,-88.8 106.2,-88.8 103.2,-84.8 23.8,-84.8 23.8,-48.8 130.2,-48.8 130.2,-84.8"/>
<text text-anchor="middle" x="77" y="-62.6" font-family="Times,serif" font-size="14.00">RegisterModule</text>
</g>
<!-- RegisterModule&#45;&gt;AppModule -->
<g id="edge4" class="edge">
<title>RegisterModule&#45;&gt;AppModule</title>
<path fill="none" stroke="black" d="M77,-85.08C77,-106.12 77,-137.8 77,-137.8 77,-137.8 257.26,-137.8 257.26,-137.8"/>
<polygon fill="black" stroke="black" points="257.26,-141.3 267.26,-137.8 257.26,-134.3 257.26,-141.3"/>
</g>
<!-- AppService -->
<g id="node6" class="node">
<title>AppService</title>
<ellipse fill="#fdb462" stroke="black" cx="553" cy="-66.8" rx="56.74" ry="18"/>
<text text-anchor="middle" x="553" y="-62.6" font-family="Times,serif" font-size="14.00">AppService</text>
</g>
<!-- AppService&#45;&gt;AppModule -->
<g id="edge5" class="edge">
<title>AppService&#45;&gt;AppModule</title>
<path fill="none" stroke="black" d="M553,-85.08C553,-106.12 553,-137.8 553,-137.8 553,-137.8 360.67,-137.8 360.67,-137.8"/>
<polygon fill="black" stroke="black" points="360.67,-134.3 350.67,-137.8 360.67,-141.3 360.67,-134.3"/>
</g>
</g>
</svg>
